Assignment 5
…
13. Plot a bar chart of average speeds in months filled by SEX

SpdSex <- c2015 %>% 
  group_by(MONTH, SEX) %>% 
    summarize(AvgSpd = mean(TRAV_SP))
SpdSex

## # A tibble: 24 x 3
## # Groups:   MONTH [12]
##    MONTH    SEX    AvgSpd
##    <chr>    <chr>   <dbl>
##  1 April    Female   46.1
##  2 April    Male     51.0
##  3 August   Female   46.6
##  4 August   Male     52.4
##  5 December Female   47.6
##  6 December Male     51.9
##  7 February Female   45.7
##  8 February Male     49.3
##  9 January  Female   43.7
## 10 January  Male     51.6
## # ... with 14 more rows
…
14. Plot a bar chart of average speeds in months colored by INJ_SEV

SpdSev <- c2015 %>% 
  group_by(MONTH, INJ_SEV) %>% 
    summarize(AvgSpd = mean(TRAV_SP))
SpdSev

## # A tibble: 72 x 3
## # Groups:   MONTH [12]
##    MONTH  INJ_SEV                     AvgSpd
##    <chr>  <chr>                        <dbl>
##  1 April  Died Prior to Crash*          87  
##  2 April  Fatal Injury (K)              54.3
##  3 April  No Apparent Injury (O)        40.2
##  4 April  Possible Injury (C)           48.2
##  5 April  Suspected Minor Injury(B)     50.7
##  6 April  Suspected Serious Injury(A)   53.0
##  7 August Fatal Injury (K)              56.0
##  8 August Injured, Severity Unknown     48.7
##  9 August No Apparent Injury (O)        42.3
## 10 August Possible Injury (C)           46.2
## # ... with 62 more rows
…
